Taylor Johnson - DANL 200 Project
…
2.2 W/L/D versus Team SR Differential

The following shows the percentage of games this individual either won, lost, or drew per season given that his team had a higher skill rating than the enemy team (advantage) or that his team had a lower skill rating than the enemy team (disadvantage).

SRDiffResult %>%
  group_by(season,SR.Diff,Result,total_matches) %>%
  count() %>%
  summarize( Prop = round( n / total_matches * 100, digits = 1) ) %>%
  select(season,SR.Diff,Result,Prop)

# A tibble: 24 × 4
# Groups:   season, SR.Diff, Result [24]
   season SR.Diff      Result  Prop
    <int> <chr>        <chr>  <dbl>
 1      3 advantage    Draw     8.8
 2      3 advantage    Loss    42.1
 3      3 advantage    Win     49.1
 4      3 disadvantage Draw     4.1
 5      3 disadvantage Loss    51  
 6      3 disadvantage Win     44.9
 7      4 advantage    Draw     5  
 8      4 advantage    Loss    37.6
 9      4 advantage    Win     57.4
10      4 disadvantage Draw     8.9
# ℹ 14 more rows
…
